<!DOCTYPE svg PUBLIC "-//W3C//DTD SVG 20010904//EN" "http://www.w3.org/TR/2001/REC-SVG-20010904/DTD/svg10.dtd">
<svg version="1.0" xmlns="http://www.w3.org/2000/svg" width="133px" height="29px" viewBox="0 0 1330 290" preserveAspectRatio="xMidYMid meet">
<g id="layer101" fill="#000206" stroke="none">
 <path d="M1042 285 c16 -17 -13 -34 -38 -24 -32 12 -34 12 -34 -4 0 -7 14 -21 31 -31 22 -13 28 -21 20 -29 -7 -7 -18 -7 -36 3 -31 17 -44 6 -22 -18 25 -28 21 -43 -10 -40 -29 3 -29 2 -15 -45 4 -16 0 -18 -24 -16 -22 3 -28 0 -25 -11 16 -61 15 -63 -13 -58 -14 3 -26 1 -26 -3 0 -15 98 -10 107 5 6 11 18 12 53 6 64 -13 80 -12 80 4 0 8 6 16 13 19 18 7 -43 30 -80 29 -18 0 -33 4 -33 9 0 16 29 22 58 11 60 -23 82 -24 82 -3 0 11 6 21 13 24 23 8 -1 18 -57 24 -58 6 -66 12 -42 32 10 9 24 6 57 -9 57 -26 61 -25 81 9 15 28 15 29 -5 35 -12 3 -39 6 -59 6 -20 0 -39 4 -43 9 -11 18 35 22 84 7 48 -14 51 -14 61 4 20 38 13 50 -32 50 -24 0 -68 3 -98 6 -30 4 -52 3 -48 -1z"/>
 <path d="M45 237 c-3 -7 -4 -56 -3 -108 l3 -94 45 0 c45 0 45 0 48 37 3 33 0 38 -17 38 -16 0 -21 -6 -21 -25 0 -16 -6 -25 -15 -25 -12 0 -15 16 -15 80 0 64 3 80 15 80 8 0 15 -9 15 -20 0 -14 7 -20 21 -20 17 0 20 5 17 33 -3 30 -6 32 -46 35 -29 2 -44 -1 -47 -11z"/>
 <path d="M290 140 c0 -91 3 -110 15 -110 11 0 15 12 15 45 0 33 4 45 15 45 11 0 15 -12 15 -45 0 -38 3 -45 20 -45 19 0 20 7 20 110 0 103 -1 110 -20 110 -17 0 -20 -7 -20 -50 0 -38 -4 -50 -15 -50 -11 0 -15 12 -15 50 0 38 -4 50 -15 50 -12 0 -15 -19 -15 -110z"/>
 <path d="M410 180 l0 -71 43 3 c41 3 42 4 45 41 3 35 2 37 -27 37 -22 0 -31 5 -31 16 0 12 7 14 31 9 26 -6 30 -4 27 12 -2 13 -14 19 -46 21 l-42 3 0 -71z m60 -25 c0 -8 -7 -15 -15 -15 -8 0 -15 7 -15 15 0 8 7 15 15 15 8 0 15 -7 15 -15z"/>
 <path d="M520 210 c0 -38 2 -40 30 -40 21 0 30 -5 30 -16 0 -12 -7 -14 -31 -9 -26 6 -30 4 -27 -12 2 -14 12 -18 43 -18 l40 0 3 66 3 66 -46 1 -45 1 0 -39z m60 -5 c0 -8 -7 -15 -15 -15 -8 0 -15 7 -15 15 0 8 7 15 15 15 8 0 15 -7 15 -15z"/>
 <path d="M630 140 c0 -91 3 -110 15 -110 12 0 15 19 15 110 0 91 -3 110 -15 110 -12 0 -15 -19 -15 -110z"/>
 <path d="M687 243 c-5 -9 -11 -114 -9 -150 2 -28 41 -33 43 -5 7 122 3 162 -13 162 -9 0 -19 -3 -21 -7z"/>
 <path d="M740 140 c0 -91 3 -110 15 -110 11 0 15 12 15 44 0 43 1 45 28 43 27 -2 27 -1 30 66 2 55 0 67 -13 67 -12 0 -15 -12 -15 -55 0 -44 -3 -53 -15 -49 -11 4 -15 21 -15 55 0 37 -4 49 -15 49 -12 0 -15 -19 -15 -110z"/>
 <path d="M190 155 c0 -9 9 -15 25 -15 16 0 25 6 25 15 0 9 -9 15 -25 15 -16 0 -25 -6 -25 -15z"/>
 </g>
<g id="layer102" fill="#ecf4f7" stroke="none">
 <path d="M0 145 l0 -145 425 0 c234 0 425 4 425 9 0 4 12 6 26 3 28 -5 29 -3 13 58 -3 11 3 14 25 11 24 -2 28 0 24 16 -14 47 -14 48 15 45 31 -3 35 12 10 40 -22 24 -9 35 22 18 18 -10 29 -10 36 -3 8 8 2 16 -20 29 -17 10 -31 24 -31 31 0 16 2 16 34 4 17 -7 27 -6 35 3 6 7 8 16 5 19 -4 4 -240 7 -525 7 l-519 0 0 -145z m138 68 c3 -28 0 -33 -17 -33 -14 0 -21 6 -21 20 0 11 -7 20 -15 20 -12 0 -15 -16 -15 -80 0 -64 3 -80 15 -80 9 0 15 9 15 25 0 19 5 25 21 25 17 0 20 -5 17 -38 -3 -37 -3 -37 -48 -37 l-45 0 -3 94 c-1 52 0 101 3 108 3 10 18 13 47 11 40 -3 43 -5 46 -35z m182 -13 c0 -38 4 -50 15 -50 11 0 15 12 15 50 0 43 3 50 20 50 19 0 20 -7 20 -110 0 -103 -1 -110 -20 -110 -17 0 -20 7 -20 45 0 33 -4 45 -15 45 -11 0 -15 -12 -15 -45 0 -33 -4 -45 -15 -45 -12 0 -15 19 -15 110 0 91 3 110 15 110 11 0 15 -12 15 -50z m178 27 c3 -16 -1 -18 -27 -12 -24 5 -31 3 -31 -9 0 -11 9 -16 31 -16 29 0 30 -2 27 -37 -3 -37 -4 -38 -45 -41 l-43 -3 0 71 0 71 42 -3 c32 -2 44 -8 46 -21z m110 -46 l-3 -66 -40 0 c-31 0 -41 4 -43 18 -3 16 1 18 27 12 24 -5 31 -3 31 9 0 11 -9 16 -30 16 -28 0 -30 2 -30 40 l0 39 45 -1 46 -1 -3 -66z m52 -41 c0 -91 -3 -110 -15 -110 -12 0 -15 19 -15 110 0 91 3 110 15 110 12 0 15 -19 15 -110z m64 38 c-1 -40 -3 -81 -3 -90 -1 -11 -9 -18 -21 -18 -22 0 -25 11 -20 105 3 69 5 75 28 75 15 0 17 -10 16 -72z m46 23 c0 -34 4 -51 15 -55 12 -4 15 5 15 49 0 43 3 55 15 55 13 0 15 -12 13 -67 -3 -67 -3 -68 -30 -66 -27 2 -28 0 -28 -43 0 -32 -4 -44 -15 -44 -12 0 -15 19 -15 110 0 91 3 110 15 110 11 0 15 -12 15 -49z m-530 -46 c0 -9 -9 -15 -25 -15 -16 0 -25 6 -25 15 0 9 9 15 25 15 16 0 25 -6 25 -15z"/>
 <path d="M440 155 c0 -8 7 -15 15 -15 8 0 15 7 15 15 0 8 -7 15 -15 15 -8 0 -15 -7 -15 -15z"/>
 <path d="M550 205 c0 -8 7 -15 15 -15 8 0 15 7 15 15 0 8 -7 15 -15 15 -8 0 -15 -7 -15 -15z"/>
 <path d="M1168 283 c65 -4 74 -13 52 -53 -10 -18 -13 -18 -61 -4 -49 15 -95 11 -84 -7 4 -5 23 -9 43 -9 20 0 47 -3 59 -6 20 -6 20 -7 5 -35 -20 -34 -24 -35 -81 -9 -33 15 -47 18 -57 9 -24 -20 -16 -26 42 -32 56 -6 80 -16 57 -24 -7 -3 -13 -13 -13 -24 0 -21 -22 -20 -82 3 -29 11 -58 5 -58 -11 0 -5 15 -9 33 -9 37 1 98 -22 80 -29 -7 -3 -13 -12 -13 -20 0 -12 -9 -14 -47 -9 -27 4 -55 9 -64 12 -9 2 -19 -2 -23 -11 -5 -13 18 -15 184 -15 l190 0 0 145 0 145 -112 -2 c-70 -1 -89 -3 -50 -5z"/>
 </g>

</svg>